SSN,Type,Organization,Title,Reason,Date
123456789,V,Pratt,Student Representative,game nights,20180101
121234322,J,Department of Energy,Contract Manager,energy contracts,20150301
121234322,J,Chargepoint,Intern,energy analysis,20140301
121234322,V,Amnesty International,Volunteer Coordinator,water access,20130101
980144571,J,IBM,Manager,financial software,20130506
209653294,V,UNICEF,Coin Collector,world hunger,19961128
942326525,J,Fyre,Promoter,hiring acts,19961031
822916939,J,Skynet,Terminator,elminiating Connor,19841011
978560790,V,United Nations,Student Ambassador,world peace,20051114
978560790,J,Nascar,Driver,going really really fast,19891025
978560790,V,PETA,Dog Friend,petting dogs,19951027
895142748,J,Netflix,Software Engineer,making the movies play,20051024
895142748,J,Grubhub,Data Scientist,predicting orders,19931021
305338572,V,The Water Project,Water Tester,water access,19921123
675738984,V,Read to Me,Reader,increasing childhood literacy,19971119
504881935,J,Hulu,Documentary Director,cataloging fyre festival,20051123
