SSN,Department,FirstName,LastName,Age,Sex,AddressStreet1,AddressStreet2,AddressCity,AddressZipCode,PhoneType,PhoneAreaCode,PhonePrefix,PhoneLineNumber,GPA,Type
209653294,ECE,Gayan,Seneviratna,25,M,37 Del Monte Blvd.,Apartment 11A,Durham,27730,M,555,123,4567,3.61,Masters
638798396,STA,Nayag,Antarivenes,37,F,400 Chales Drive,,Chapel Hill,99123,H,555,991,2324,3.4,PostDoc
822916939,CSE,Quintin,Jones,24,O,230 Turpentine Street,,Raleigh,27653,M,555,248,3472,3.37,Undergraduate
978560790,MAT,Beatrice,Hill,20,F,265 Main Street,,Durham,27324,H,555,206,8282,3.5,PhD
129162244,PSY,Ricki,Rice,37,F,232 3rd Street,,Chapel Hill,27008,O,555,390,3734,3.12,Masters
827790908,SOC,Natalie,Baratheon,28,F,257 James Lane,,Raleigh,27974,W,555,367,4847,3.21,PostDoc
866570423,NRS,Zach,Smith,17,M,91 Gleason Parkway,,Chapel Hill,27485,H,555,425,8495,3.35,Undergraduate
279196098,ECE,Martha,Snyder,26,F,40 Beverly Street,,Raleigh,27873,M,555,769,9128,3.56,PhD
795728917,STA,James,Hudson,37,M,233 Main Street,Apartment 7,Durham,27067,H,555,832,2246,3.54,Masters
219351336,CSE,Rudolph,Gandolphini,30,M,286 3rd Street,,Chapel Hill,27995,M,555,882,6158,3.66,PostDoc
451569906,MAT,Julie,Abalone,29,F,108 River Road,,Raleigh,27678,M,555,630,7921,3.5,Undergraduate
399521699,PSY,Kate,Gunn,37,F,94 Eagle Valley Blvd.,,Durham,27148,H,555,206,9380,3,PhD
916154215,SOC,Lena,Lannister,21,F,159 Gorilla Road,,Durham,27326,M,555,375,3706,3.02,Masters
895142748,NRS,Charlemain,Tribble,27,M,111 Wheeler Drive,Apt. 8,Chapel Hill,27282,W,555,915,9663,3.9,PostDoc
305338572,ECE,Noodle,Hominay,22,F,175 Lyndale Avenue,,Raleigh,27637,O,555,531,8555,3.41,Masters
675738984,STA,Betsy,Bartholomew,33,F,2 Main Street,,Durham,27606,W,555,505,9786,3.74,PostDoc
504881935,CSE,Bruce,Bentlley,31,M,263 7th Street,,Chapel Hill,27836,H,555,793,5463,3.85,Undergraduate
355485623,MAT,Simon,Stewart,19,O,57 Trellis Lane,,Raleigh,27305,M,555,588,8761,3.38,PhD
508666285,PSY,Garfunkel,Gryffindor,22,M,65 Stoneview Drive,,Durham,27178,H,555,654,7148,3.65,Masters
